…
## Practice with `filter()`

Recall that `filter()` allows us to select specific characteristics via
row values within the data. In addition, we can use the `%>%` (pipe) to
connect our data to the function.

For example, here is the code to filter out just the Chinstrap penguins
from the data

``` r
penguins %>% 
  filter(species == "Chinstrap") 
```

    # A tibble: 68 × 8
       species   island bill_length_mm bill_depth_mm flipper_length_mm body_mass_g
       <fct>     <fct>           <dbl>         <dbl>             <int>       <int>
     1 Chinstrap Dream            46.5          17.9               192        3500
     2 Chinstrap Dream            50            19.5               196        3900
     3 Chinstrap Dream            51.3          19.2               193        3650
     4 Chinstrap Dream            45.4          18.7               188        3525
     5 Chinstrap Dream            52.7          19.8               197        3725
     6 Chinstrap Dream            45.2          17.8               198        3950
     7 Chinstrap Dream            46.1          18.2               178        3250
     8 Chinstrap Dream            51.3          18.2               197        3750
     9 Chinstrap Dream            46            18.9               195        4150
    10 Chinstrap Dream            51.3          19.9               198        3700
    # … with 58 more rows, and 2 more variables: sex <fct>, year <int>
…
## Practice with `select()`

Recall that `select()` allows us to select specific columns within the
data. In addition, we can use the `%>%` (pipe) to connect our data to
the function.

For example, here is the code to select just the species and sex
variables:

``` r
penguins %>% 
  select(species, sex)
```

    # A tibble: 344 × 2
       species sex   
       <fct>   <fct> 
     1 Adelie  male  
     2 Adelie  female
     3 Adelie  female
     4 Adelie  <NA>  
     5 Adelie  female
     6 Adelie  male  
     7 Adelie  female
     8 Adelie  male  
     9 Adelie  <NA>  
    10 Adelie  <NA>  
    # … with 334 more rows
…
-   Use `.before` or `.after` to move a column to before or after
    another (by name or class)  
-   If a single column is within the function (e.g. `relocate(col_A)`),
    that column is moved to the front

For example, the following will move `year` to the front

``` r
penguins %>% 
  relocate(year)
```

    # A tibble: 344 × 8
        year species island    bill_length_mm bill_depth_mm flipper_length_mm
       <int> <fct>   <fct>              <dbl>         <dbl>             <int>
     1  2007 Adelie  Torgersen           39.1          18.7               181
     2  2007 Adelie  Torgersen           39.5          17.4               186
     3  2007 Adelie  Torgersen           40.3          18                 195
     4  2007 Adelie  Torgersen           NA            NA                  NA
     5  2007 Adelie  Torgersen           36.7          19.3               193
     6  2007 Adelie  Torgersen           39.3          20.6               190
     7  2007 Adelie  Torgersen           38.9          17.8               181
     8  2007 Adelie  Torgersen           39.2          19.6               195
     9  2007 Adelie  Torgersen           34.1          18.1               193
    10  2007 Adelie  Torgersen           42            20.2               190
    # … with 334 more rows, and 2 more variables: body_mass_g <int>, sex <fct>

Or we could move `year` after `island`

``` r
penguins %>% 
  relocate(year, .after = island)
```

    # A tibble: 344 × 8
       species island     year bill_length_mm bill_depth_mm flipper_length_mm
       <fct>   <fct>     <int>          <dbl>         <dbl>             <int>
     1 Adelie  Torgersen  2007           39.1          18.7               181
     2 Adelie  Torgersen  2007           39.5          17.4               186
     3 Adelie  Torgersen  2007           40.3          18                 195
     4 Adelie  Torgersen  2007           NA            NA                  NA
     5 Adelie  Torgersen  2007           36.7          19.3               193
     6 Adelie  Torgersen  2007           39.3          20.6               190
     7 Adelie  Torgersen  2007           38.9          17.8               181
     8 Adelie  Torgersen  2007           39.2          19.6               195
     9 Adelie  Torgersen  2007           34.1          18.1               193
    10 Adelie  Torgersen  2007           42            20.2               190
    # … with 334 more rows, and 2 more variables: body_mass_g <int>, sex <fct>
…
### New Function `rename()`

We can use `rename()` to change the name of one or more columns.
Generally, it’ll look something like this:

`dataframe %>% rename(new_name = old_name)`

For example, we can rename `island` to `palmer_island`

``` r
penguins %>% 
  rename(palmer_island = island)
```

    # A tibble: 344 × 8
       species palmer_island bill_length_mm bill_depth_mm flipper_length_mm
       <fct>   <fct>                  <dbl>         <dbl>             <int>
     1 Adelie  Torgersen               39.1          18.7               181
     2 Adelie  Torgersen               39.5          17.4               186
     3 Adelie  Torgersen               40.3          18                 195
     4 Adelie  Torgersen               NA            NA                  NA
     5 Adelie  Torgersen               36.7          19.3               193
     6 Adelie  Torgersen               39.3          20.6               190
     7 Adelie  Torgersen               38.9          17.8               181
     8 Adelie  Torgersen               39.2          19.6               195
     9 Adelie  Torgersen               34.1          18.1               193
    10 Adelie  Torgersen               42            20.2               190
    # … with 334 more rows, and 3 more variables: body_mass_g <int>, sex <fct>,
    #   year <int>
…
## Practice with `arrange()`

We can use `arrange()` to reorder your data based on the values of
specific variable or variables from smallest to largest. The addition of
`desc()` can reverse the order from largest to smallest.

For example, we can arrange the penguins by body mass

``` r
penguins %>% 
  arrange(body_mass_g)
```

    # A tibble: 344 × 8
       species   island    bill_length_mm bill_depth_mm flipper_length_… body_mass_g
       <fct>     <fct>              <dbl>         <dbl>            <int>       <int>
     1 Chinstrap Dream               46.9          16.6              192        2700
     2 Adelie    Biscoe              36.5          16.6              181        2850
     3 Adelie    Biscoe              36.4          17.1              184        2850
     4 Adelie    Biscoe              34.5          18.1              187        2900
     5 Adelie    Dream               33.1          16.1              178        2900
     6 Adelie    Torgersen           38.6          17                188        2900
     7 Chinstrap Dream               43.2          16.6              187        2900
     8 Adelie    Biscoe              37.9          18.6              193        2925
     9 Adelie    Dream               37.5          18.9              179        2975
    10 Adelie    Dream               37            16.9              185        3000
    # … with 334 more rows, and 2 more variables: sex <fct>, year <int>

Remember we can also combine multiple functions in a pipe

``` r
penguins %>% 
  filter(island == "Dream") %>% 
  arrange(body_mass_g) %>% 
  select(species, sex, body_mass_g)
```

    # A tibble: 124 × 3
       species   sex    body_mass_g
       <fct>     <fct>        <int>
     1 Chinstrap female        2700
     2 Adelie    female        2900
     3 Chinstrap female        2900
     4 Adelie    <NA>          2975
     5 Adelie    female        3000
     6 Adelie    female        3000
     7 Adelie    female        3050
     8 Adelie    female        3100
     9 Adelie    female        3150
    10 Adelie    female        3175
    # … with 114 more rows
…
